﻿2020-11-30 20:14:47.690 +0530	START		Running _RUN_ME_Desktop.script
2020-11-30 20:14:47.873 +0530	Exception		Remote Connection Unavailable	2	on_openamazonurl	OpenAmazonURL.script
2020-11-30 20:14:48.052 +0530	EndTestCase		(Duration:"0.338", Errors:"1", Exceptions:"1", StartTime:"2020-11-30 20:14:47 +0530", Successes:"0", TestCase:"_RUN_ME_Desktop.script", Warnings:"0")
2020-11-30 20:14:48.156 +0530	FAILURE		No Remote Connection typetext Error - Remote Connection Unavailable -- Execution Time 0:00:00 _RUN_ME_Desktop.script
